Some advice and tips for getting more out of R, and improving your code, analysis and output
…
Remember when piping from the data into a plot that no changes are made to the underlying data - if I wanted to make a more permanent change to the order of my variables I would need to assign the updated data to a new object - in this case I will over-write my existing data set. It is always worth thinking carefully about doing this! But the advantage of having this reproducible script file is that if I do make a mistake I can just start again from the top of my code.

oats_data<-mutate(oats_data,gen=reorder(gen,yield))

Tip 3 - Making Table Look a Bit Nicer In Our Reports

Of course I have multiple locations and multiple years in this data set, and this is something I should account for in my analysis. So I might want a three way table looking at the values by site and location. I can get lots of lovely summary statistics by using group_by and summarise:

(Note that the order of genotypes is now based from overall lowest mean to overall highest based on the previous code.)

oats_data %>%
  group_by(env,year,gen) %>%
   summarise(n=n(),mean=mean(yield),sd=sd(yield))

# A tibble: 78 × 6
# Groups:   env, year [6]
   env     year gen       n  mean    sd
   <chr>  <int> <fct> <int> <dbl> <dbl>
 1 Karnal  1932 B         5  29.3  5.14
 2 Karnal  1932 H         5  36.5  6.59
 3 Karnal  1932 A         5  41.3  3.91
 4 Karnal  1932 K         5  39.4  8.84
 5 Karnal  1932 I         5  32.8  5.84
 6 Karnal  1932 F         5  34.4  5.54
 7 Karnal  1932 D         5  40.6  5.07
 8 Karnal  1932 E         5  35.7  6.17
 9 Karnal  1932 G         5  43.7  6.77
10 Karnal  1932 J         5  44.3  6.05
# ℹ 68 more rows

But this output is kind of overwhelming and definitely not the most efficient way of presenting this information with a 78 row table with far too many decimals and lots of repeated values and labels!

There are built in functions to make ‘pretty’ summary tables - but usually I find I want a bit more control over exactly what is included and how it is laid out so it is really useful to know how to manipulate tables into the shape you want in R and present them nicely. It will save you a lot of time in the future - especially if you have ever found yourself copy-pasting numbers from R output into tables (please never ever do this, it will make me sad).

So it is useful to know how to build something yourself - pivot_ can be very powerful here for modifying the content and shape within R. I am going to ask it to reshape my data and have one column for each statistic in each year. This will give me a more manageable set of dimensions. I am going to assign it to an object called table0, since I will be re-using this initial summary table later on as the basis for a more presentable looking table.

table0<-oats_data %>%
  group_by(env,year,gen) %>%
   summarise(mean=mean(yield),sd=sd(yield)) %>%
        pivot_wider(names_from = year,values_from = c(mean,sd))

table0

# A tibble: 26 × 8
# Groups:   env [2]
   env    gen   mean_1932 mean_1933 mean_1934 sd_1932 sd_1933 sd_1934
   <chr>  <fct>     <dbl>     <dbl>     <dbl>   <dbl>   <dbl>   <dbl>
 1 Karnal B          29.3      26.1      31.2    5.14    3.83    4.67
 2 Karnal H          36.5      36        36.8    6.59    7.80    4.92
 3 Karnal A          41.3      36.6      43.4    3.91    4.56    7.50
 4 Karnal K          39.4      38.5      40.3    8.84    3.91    8.25
 5 Karnal I          32.8      35.6      43.3    5.84    2.95    6.33
 6 Karnal F          34.4      37.5      41.9    5.54    3.35    8.20
 7 Karnal D          40.6      43.5      41      5.07    7.42    7.71
 8 Karnal E          35.7      43.6      42.7    6.17    5.86    8.14
 9 Karnal G          43.7      50.2      43.6    6.77    4.38    7.65
10 Karnal J          44.3      53.7      42.1    6.05    5.83    5.72
# ℹ 16 more rows
…
